{
    "project": {
        "name": "NAZWA",
        "description": "DESCRIPTION",
        "version": "0.0.2",
        "url": "http://www.blahisgood"
    },
    "files": {
        "js\\client.js": {
            "name": "js\\client.js",
            "modules": {
                "client": 1
            },
            "classes": {
                "function": 1
            },
            "fors": {},
            "namespaces": {}
        },
        "index.js": {
            "name": "index.js",
            "modules": {
                "index": 1
            },
            "classes": {
                "app": 1,
                "http": 1,
                "io": 1,
                "fs": 1,
                "childProcess": 1,
                "testScript (scriptPath, callback)": 1,
                "executeScript (scriptPath, callback)": 1,
                "app.get(path, function)": 1,
                "app.get(css styles.css, function ()": 1,
                "app.get(js client.js, function (req, res)": 1,
                "io.on('connection', function())": 1,
                "http.listen(3000, function ())": 1
            },
            "fors": {},
            "namespaces": {}
        }
    },
    "modules": {
        "client": {
            "name": "client",
            "submodules": {},
            "elements": {},
            "classes": {
                "function": 1
            },
            "fors": {},
            "namespaces": {},
            "tag": "module",
            "file": "js\\client.js",
            "line": 4
        },
        "index": {
            "name": "index",
            "submodules": {},
            "elements": {},
            "classes": {
                "app": 1,
                "http": 1,
                "io": 1,
                "fs": 1,
                "childProcess": 1,
                "testScript (scriptPath, callback)": 1,
                "executeScript (scriptPath, callback)": 1,
                "app.get(path, function)": 1,
                "app.get(css styles.css, function ()": 1,
                "app.get(js client.js, function (req, res)": 1,
                "io.on('connection', function())": 1,
                "http.listen(3000, function ())": 1
            },
            "fors": {},
            "namespaces": {},
            "tag": "module",
            "file": "index.js",
            "line": 309
        }
    },
    "classes": {
        "function": {
            "name": "function",
            "shortname": "function",
            "classitems": [],
            "plugins": [],
            "extensions": [],
            "plugin_for": [],
            "extension_for": [],
            "module": "client",
            "namespace": "",
            "file": "js\\client.js",
            "line": 4,
            "description": "allows client to connect to server",
            "itemtype": "property"
        },
        "app": {
            "name": "app",
            "shortname": "app",
            "classitems": [],
            "plugins": [],
            "extensions": [],
            "plugin_for": [],
            "extension_for": [],
            "module": "index",
            "namespace": "",
            "file": "index.js",
            "line": 4,
            "description": "include express module"
        },
        "http": {
            "name": "http",
            "shortname": "http",
            "classitems": [],
            "plugins": [],
            "extensions": [],
            "plugin_for": [],
            "extension_for": [],
            "module": "index",
            "namespace": "",
            "file": "index.js",
            "line": 9,
            "description": "include http module and create server object"
        },
        "io": {
            "name": "io",
            "shortname": "io",
            "classitems": [],
            "plugins": [],
            "extensions": [],
            "plugin_for": [],
            "extension_for": [],
            "module": "index",
            "namespace": "",
            "file": "index.js",
            "line": 14,
            "description": "include socket.io module and send him http server"
        },
        "fs": {
            "name": "fs",
            "shortname": "fs",
            "classitems": [],
            "plugins": [],
            "extensions": [],
            "plugin_for": [],
            "extension_for": [],
            "module": "index",
            "namespace": "",
            "file": "index.js",
            "line": 22,
            "description": "include fs(file system) module"
        },
        "childProcess": {
            "name": "childProcess",
            "shortname": "childProcess",
            "classitems": [],
            "plugins": [],
            "extensions": [],
            "plugin_for": [],
            "extension_for": [],
            "module": "index",
            "namespace": "",
            "file": "index.js",
            "line": 29,
            "description": "include childProcess module"
        },
        "testScript (scriptPath, callback)": {
            "name": "testScript (scriptPath, callback)",
            "shortname": "testScript (scriptPath, callback)",
            "classitems": [],
            "plugins": [],
            "extensions": [],
            "plugin_for": [],
            "extension_for": [],
            "module": "index",
            "namespace": "",
            "file": "index.js",
            "line": 39,
            "description": "check if the script is correct",
            "params": [
                {
                    "name": "scriptPath",
                    "description": "path to script file",
                    "type": "String"
                },
                {
                    "name": "callback",
                    "description": "callback",
                    "type": "Function"
                }
            ]
        },
        "executeScript (scriptPath, callback)": {
            "name": "executeScript (scriptPath, callback)",
            "shortname": "executeScript (scriptPath, callback)",
            "classitems": [],
            "plugins": [],
            "extensions": [],
            "plugin_for": [],
            "extension_for": [],
            "module": "index",
            "namespace": "",
            "file": "index.js",
            "line": 89,
            "description": "execute the script",
            "params": [
                {
                    "name": "scriptPath",
                    "description": "path to script file",
                    "type": "String"
                },
                {
                    "name": "callback",
                    "description": "callback",
                    "type": "Function"
                }
            ]
        },
        "app.get(path, function)": {
            "name": "app.get(path, function)",
            "shortname": "app.get(path, function)",
            "classitems": [],
            "plugins": [],
            "extensions": [],
            "plugin_for": [],
            "extension_for": [],
            "module": "index",
            "namespace": "",
            "file": "index.js",
            "line": 247,
            "description": "send index.html directly to client",
            "params": [
                {
                    "name": "'/'",
                    "description": "path directory",
                    "type": "String"
                },
                {
                    "name": "function",
                    "description": "create function and passes it as a callback parameter",
                    "type": "Function"
                }
            ]
        },
        "app.get(css styles.css, function ()": {
            "name": "app.get(css styles.css, function ()",
            "shortname": "app.get(css styles.css, function ()",
            "classitems": [],
            "plugins": [],
            "extensions": [],
            "plugin_for": [],
            "extension_for": [],
            "module": "index",
            "namespace": "",
            "file": "index.js",
            "line": 256,
            "description": "send styles.css directly to client",
            "params": [
                {
                    "name": "'/css/styles.css'",
                    "description": "path directory",
                    "type": "String"
                },
                {
                    "name": "function",
                    "description": "create function and passes it as a callback parameter",
                    "type": "Function"
                }
            ]
        },
        "app.get(js client.js, function (req, res)": {
            "name": "app.get(js client.js, function (req, res)",
            "shortname": "app.get(js client.js, function (req, res)",
            "classitems": [],
            "plugins": [],
            "extensions": [],
            "plugin_for": [],
            "extension_for": [],
            "module": "index",
            "namespace": "",
            "file": "index.js",
            "line": 266,
            "description": "send client.js directly to client",
            "params": [
                {
                    "name": "'/js/client.js'",
                    "description": "path directory",
                    "type": "String"
                },
                {
                    "name": "function",
                    "description": "create function and passes it as a callback parameter",
                    "type": "Function"
                }
            ]
        },
        "io.on('connection', function())": {
            "name": "io.on('connection', function())",
            "shortname": "io.on('connection', function())",
            "classitems": [],
            "plugins": [],
            "extensions": [],
            "plugin_for": [],
            "extension_for": [],
            "module": "index",
            "namespace": "",
            "file": "index.js",
            "line": 275,
            "description": "listen for 'connection' name event",
            "params": [
                {
                    "name": "'connection'",
                    "description": "events name",
                    "type": "String"
                },
                {
                    "name": "function()",
                    "description": "the callback function",
                    "type": "Function"
                }
            ]
        },
        "http.listen(3000, function ())": {
            "name": "http.listen(3000, function ())",
            "shortname": "http.listen(3000, function ())",
            "classitems": [],
            "plugins": [],
            "extensions": [],
            "plugin_for": [],
            "extension_for": [],
            "module": "index",
            "namespace": "",
            "file": "index.js",
            "line": 309,
            "description": "Function with allow to listen on specified port (3000)",
            "params": [
                {
                    "name": "3000",
                    "description": "Port number",
                    "type": "Number"
                },
                {
                    "name": "function()",
                    "description": "",
                    "type": "console.log('listening on *:3000');"
                }
            ]
        }
    },
    "elements": {},
    "classitems": [
        {
            "file": "js\\client.js",
            "line": 13,
            "itemtype": "method",
            "name": "$('form').submit(function())",
            "description": "take form and make callback",
            "class": "function",
            "module": "client"
        },
        {
            "file": "js\\client.js",
            "line": 22,
            "itemtype": "method",
            "name": "socket.on('chat message', function ())",
            "description": "listen for 'chat message' name event",
            "params": [
                {
                    "name": "'chat_message'",
                    "description": "events name",
                    "type": "String"
                },
                {
                    "name": "function()",
                    "description": "the callback function",
                    "type": "Function"
                }
            ],
            "class": "function",
            "module": "client"
        },
        {
            "file": "index.js",
            "line": 48,
            "itemtype": "property",
            "name": "invoked",
            "description": "keep track of whether callback has been invoked to prevent multiple invocations",
            "type": "{boolean}",
            "class": "testScript (scriptPath, callback)",
            "module": "index"
        },
        {
            "file": "index.js",
            "line": 54,
            "itemtype": "property",
            "name": "precess",
            "description": "create new process",
            "class": "testScript (scriptPath, callback)",
            "module": "index"
        },
        {
            "file": "index.js",
            "line": 61,
            "itemtype": "method",
            "name": "process.on('error', function ())",
            "description": "listen for 'error' name event",
            "params": [
                {
                    "name": "'error'",
                    "description": "events name",
                    "type": "String"
                },
                {
                    "name": "function()",
                    "description": "the callback function",
                    "type": "Function"
                }
            ],
            "class": "testScript (scriptPath, callback)",
            "module": "index"
        },
        {
            "file": "index.js",
            "line": 75,
            "itemtype": "method",
            "name": "process.on('exit', function ())",
            "description": "listen for 'exit' name event",
            "params": [
                {
                    "name": "'exit'",
                    "description": "events name",
                    "type": "String"
                },
                {
                    "name": "function()",
                    "description": "the callback function",
                    "type": "Function"
                }
            ],
            "class": "testScript (scriptPath, callback)",
            "module": "index"
        },
        {
            "file": "index.js",
            "line": 96,
            "itemtype": "property",
            "name": "isInvoked",
            "description": "keep track of whether callback has been invoked already",
            "type": "{boolean}",
            "class": "executeScript (scriptPath, callback)",
            "module": "index"
        },
        {
            "file": "index.js",
            "line": 102,
            "itemtype": "property",
            "name": "precess",
            "description": "create new process",
            "class": "executeScript (scriptPath, callback)",
            "module": "index"
        },
        {
            "file": "index.js",
            "line": 108,
            "itemtype": "method",
            "name": "process.on('exit', function ())",
            "description": "listen for 'exit' name event",
            "params": [
                {
                    "name": "'error'",
                    "description": "events name",
                    "type": "String"
                },
                {
                    "name": "function()",
                    "description": "the callback function",
                    "type": "Function"
                }
            ],
            "class": "executeScript (scriptPath, callback)",
            "module": "index"
        },
        {
            "file": "index.js",
            "line": 120,
            "itemtype": "method",
            "name": "process.on('message', function ())",
            "description": "listen for 'message' name event",
            "params": [
                {
                    "name": "'message'",
                    "description": "events name",
                    "type": "String"
                },
                {
                    "name": "function()",
                    "description": "the callback function",
                    "type": "Function"
                }
            ],
            "class": "executeScript (scriptPath, callback)",
            "module": "index"
        }
    ],
    "warnings": []
}